module magma-golang

go 1.18

require (
	github.com/go-gl/gl v0.0.0-20231021071112-07e5d0ea2e71
	github.com/go-gl/glfw/v3.3/glfw v0.0.0-20240307211618-a69d953ea142
	github.com/go-gl/mathgl v1.1.0
)

require golang.org/x/image v0.0.0-20190321063152-3fc05d484e9f // indirect
